{
  "project_info": {
    "project_number": "1020046434581",
    "firebase_url": "https://happylife-82647.firebaseio.com",
    "project_id": "happylife-82647",
    "storage_bucket": "happylife-82647.appspot.com"
  },
  "client": [
    {
      "client_info": {
        "mobilesdk_app_id": "1:1020046434581:android:5a3e02eb4ba0287aa9491c",
        "android_client_info": {
          "package_name": "com.betterlife.customerapp"
        }
      },
      "oauth_client": [
        {
          "client_id": "1020046434581-bi3vj991ih42l1mu086lbfalsl2kbeu6.apps.googleusercontent.com",
          "client_type": 3
        }
      ],
      "api_key": [
        {
          "current_key": "AIzaSyBTFDHjSLhvU-3QVHne-AZNFBLqV92ySgM"
        }
      ],
      "services": {
        "appinvite_service": {
          "other_platform_oauth_client": [
            {
              "client_id": "1020046434581-bi3vj991ih42l1mu086lbfalsl2kbeu6.apps.googleusercontent.com",
              "client_type": 3
            }
          ]
        }
      }
    }
  ],
  "configuration_version": "1"
}